<?xml version="1.0" encoding="utf-8"?>
<!-- Generator: Adobe Illustrator 25.3.1, SVG Export Plug-In . SVG Version: 6.00 Build 0)  -->
<svg version="1.1" id="Layer_1" xmlns="http://www.w3.org/2000/svg" xmlns:xlink="http://www.w3.org/1999/xlink" x="0px" y="0px"
	 width="98px" height="88px" viewBox="0 0 98 88" style="enable-background:new 0 0 98 88;" xml:space="preserve">
<style type="text/css">
	.st0{fill:#FFFFFF;}
	.st1{fill:#78DEA2;}
</style>
<g>
	<g>
		<path class="st0" d="M9.9,41.6c0,0-0.1,0-0.1,0l-7.7-0.6c-0.8-0.1-1.4-0.8-1.4-1.6c0.1-0.8,0.8-1.4,1.6-1.4l7.7,0.6
			c0.8,0.1,1.4,0.8,1.4,1.6C11.4,41,10.7,41.6,9.9,41.6z"/>
		<path class="st0" d="M9.3,52.2c-0.4,0-0.7-0.1-1-0.4c-0.6-0.6-0.7-1.5-0.1-2.1l3.2-3.6c0.6-0.6,1.5-0.7,2.1-0.1
			c0.6,0.6,0.7,1.5,0.1,2.1l-3.2,3.6C10.2,52,9.8,52.2,9.3,52.2z"/>
	</g>
	<g>
		<path class="st0" d="M88.9,34.6c-0.6,0-1.1-0.3-1.3-0.8c-0.4-0.7-0.1-1.6,0.7-2l6.9-3.5c0.7-0.4,1.6-0.1,2,0.7
			c0.4,0.7,0.1,1.6-0.7,2l-6.9,3.5C89.3,34.5,89.1,34.6,88.9,34.6z"/>
		<path class="st0" d="M93.4,44.1c-0.2,0-0.4,0-0.7-0.1l-4.3-2.1c-0.7-0.4-1.1-1.3-0.7-2c0.4-0.7,1.3-1.1,2-0.7l4.3,2.1
			c0.7,0.4,1.1,1.3,0.7,2C94.5,43.8,94,44.1,93.4,44.1z"/>
	</g>
	<path class="st1" d="M67.2,55.9c-0.5,0-1-0.3-1.3-0.7c-0.4-0.7-0.2-1.6,0.5-2.1c0,0,3.8-2.3,8.2-7.1c5.3-5.6,7.6-11.8,6.5-17.1
		c-0.8-4-3.7-7.1-8.2-9.1c-11-4.6-18.5,2.4-24.1,7.5c-0.4,0.4-0.7,0.7-1.1,1c-9.7,8.9-10.6,12-10.6,13c0,0.2,0.1,0.3,0.2,0.4
		c1,0.7,6.8-3.5,12.3-10c0.3-0.4,0.8-0.6,1.3-0.5c0.5,0,0.9,0.3,1.2,0.7c0.1,0.1,2.4,3.7,8.9,3.6c6.4-0.1,7.5-3.2,7.6-3.3
		c0.3-0.8,1.1-1.2,1.9-1c0.8,0.2,1.2,1.1,1,1.8c-0.1,0.2-1.7,5.3-10.4,5.5c-5.5,0.1-8.7-2-10.3-3.5c-9.8,11-13.9,10.1-15.2,9.2
		c-0.9-0.7-1.4-1.6-1.5-2.7c-0.2-3.2,3.4-7.9,11.5-15.4c0.4-0.3,0.7-0.7,1.1-1c5.8-5.4,14.5-13.5,27.3-8.1c5.5,2.3,8.9,6.2,10,11.2
		c1.3,6.2-1.3,13.5-7.3,19.8c-4.8,5.1-8.7,7.5-8.9,7.6C67.8,55.8,67.5,55.9,67.2,55.9z"/>
	<path class="st0" d="M64.4,49.9l-9.3-9.8c-0.6-0.6-1.5-0.6-2.1-0.1c-0.6,0.6-0.6,1.5-0.1,2.1l9.3,9.9c1.2,1.2,3.1,3.6,3.1,4.7
		c0,0.2,0,0.2-0.1,0.3c-0.2,0.2-0.5,0.3-0.9,0.3c-1.1-0.1-2.6-1-3.9-2.2c-0.1-0.1-0.2-0.2-0.2-0.2c0,0,0,0,0,0c-0.8-0.7-1.5-1.4-2-2
		c0,0,0-0.1-0.1-0.1l-6.5-6.6c-0.6-0.6-1.5-0.6-2.1,0c-0.6,0.6-0.6,1.5,0,2.1l6.5,6.6c0.3,0.3,1.2,1.4,2.5,2.5
		c0.8,0.8,2,2.3,2.1,3.4c0,0.4-0.1,0.7-0.4,1c-0.2,0.2-0.5,0.4-0.9,0.3c-0.7,0-1.6-0.5-2.3-1.3c0,0,0,0,0,0c0,0,0,0,0-0.1
		c-2.2-2.2-9.2-10.8-9.3-10.8c-0.5-0.6-1.5-0.7-2.1-0.2s-0.7,1.5-0.2,2.1c0.3,0.4,7.2,8.8,9.5,11.1c1,0.9,1.3,2.2,1,2.8
		c-0.2,0.5-1.2,0.6-2.4,0.5c-0.1,0-0.2,0-0.3,0c-2-5.2-7.4-11.2-10.2-12.1c-1.4-0.4-2.2,0.3-2.5,0.6c-0.3,0.3-0.9,1.1,0.4,4.3
		c0.8,1.9,3.6,7.9,10,9.8c0,0.1,0,0.2,0.1,0.3c0.3,1.9-0.5,2.4-0.9,2.6c-2.3,1.2-10.3-7.5-18.1-16l-2.1-2.3
		c-8.4-9.1-12.3-16.4-11.9-22.3c0.2-3.4,1.8-6.3,4.9-8.9c4.5-3.7,9.9-4.2,16.1-1.4c3.6,1.6,6.4,3.9,7.7,5c0.1-0.1,0.3-0.3,0.4-0.4
		c0.6-0.5,1.2-1.1,1.8-1.7c-2.9-2.5-16.4-13.4-27.9-3.8c-3.7,3.1-5.7,6.8-6,11c-0.4,6.8,3.7,14.8,12.7,24.5l2.1,2.3
		c9.5,10.3,15.6,17,20,17c0.6,0,1.2-0.1,1.8-0.4c1.8-1,2.7-2.7,2.5-5c3,0.1,4.2-1.3,4.7-2.2c0.3-0.6,0.4-1.2,0.4-1.9
		c0.1,0,0.2,0,0.3,0c0,0,0.1,0,0.1,0c1.1,0,2.2-0.4,3-1.2c0.9-0.9,1.3-2,1.3-3.2c0-0.2,0-0.3,0-0.5c0.2,0.1,0.5,0.1,0.7,0.1
		c0.1,0,0.2,0,0.3,0c1.1,0,2-0.4,2.8-1.1c0.7-0.6,1.1-1.5,1.1-2.4C68.3,54,65,50.6,64.4,49.9z M43.5,57.9c1.6,1.4,3.9,4,5.5,6.7
		C46.1,62.9,44.4,60,43.5,57.9z"/>
</g>
</svg>
