<?xml version="1.0" encoding="utf-8"?>
<!-- Generator: Adobe Illustrator 25.3.1, SVG Export Plug-In . SVG Version: 6.00 Build 0)  -->
<svg version="1.1"  xmlns="http://www.w3.org/2000/svg" xmlns:xlink="http://www.w3.org/1999/xlink" x="0px" y="0px"
	 width="136px" viewBox="0 0 136 136" style="enable-background:new 0 0 136 136;" xml:space="preserve">
<style type="text/css">
	.st0{fill:#FFFFFF;}
	.st1{fill:#78DEA2;}
</style>
<ellipse transform="matrix(0.2783 -0.9605 0.9605 0.2783 -16.2358 114.3933)" cx="68" cy="68" rx="67.1" ry="66.8"/>
<path class="st0" d="M68.1,3.1c6.1,0,12.1,0.9,18,2.6c34.2,9.9,54,46,44,80.4c-4,13.8-12.2,25.6-23.7,34.1
	c-11.1,8.3-24.8,12.8-38.5,12.8c-6.1,0-12.1-0.9-18-2.6c-34.2-9.9-54-46-44-80.4c4-13.8,12.2-25.6,23.7-34.1
	C40.7,7.6,54.4,3.1,68.1,3.1 M68.1,0.1C38.7,0.1,11.7,19.4,3,49.2c-10.5,36,10.2,73.7,46,84.1c6.3,1.8,12.6,2.7,18.8,2.7
	c29.4,0,56.5-19.3,65.1-49.1c10.5-36-10.2-73.7-46-84.1C80.7,1,74.3,0.1,68.1,0.1L68.1,0.1z"/>
<path class="st0" d="M63.3,22.1c0,0,0.1,0.1,0.1,0.2c0,0.1,0,0.2,0,0.3s-0.1,0.2-0.2,0.2l-5.4,1.4c-0.1,0-0.2,0-0.2-0.1
	c-0.1-0.1-0.1-0.2-0.2-0.3c0-0.1,0-0.2,0-0.2c0-0.1,0.1-0.1,0.2-0.2c0.3-0.1,0.6-0.2,0.8-0.4c0.2-0.1,0.3-0.3,0.3-0.5l-1.2-4.6
	l-5.4,1.4l1.1,4.3c0.1,0.2,0.2,0.4,0.3,0.5c0.2,0.1,0.3,0.1,0.5,0.1c0.2,0,0.4,0,0.7-0.1c0.1,0,0.2,0,0.3,0c0,0,0.1,0.1,0.1,0.2
	c0,0.1,0,0.2,0,0.3c0,0.1-0.1,0.2-0.2,0.2l-5.3,1.4c-0.1,0-0.2,0-0.2-0.1c-0.1-0.1-0.1-0.2-0.2-0.3c0-0.1,0-0.2,0-0.2
	c0-0.1,0.1-0.1,0.2-0.2c0.8-0.3,1.1-0.5,1-0.8L48,15.6c-0.1-0.2-0.2-0.4-0.3-0.5c-0.1-0.1-0.3-0.1-0.5-0.1c-0.2,0-0.4,0-0.6,0.1
	c-0.1,0-0.2,0-0.3,0c0,0-0.1-0.1-0.1-0.2c0-0.1,0-0.2,0-0.3s0.1-0.2,0.2-0.2l5.3-1.4c0.1,0,0.2,0,0.2,0.1c0.1,0.1,0.1,0.2,0.2,0.3
	c0,0.1,0,0.2,0,0.2s-0.1,0.1-0.2,0.2c-0.8,0.3-1.2,0.6-1.1,0.9l1,3.8l5.4-1.4l-0.9-3.6c-0.1-0.2-0.2-0.4-0.3-0.4
	c-0.2-0.1-0.3-0.1-0.5-0.1c-0.2,0-0.4,0-0.7,0.1c-0.1,0-0.2,0-0.3,0c0,0-0.1-0.1-0.1-0.2c0-0.1,0-0.2,0-0.3c0-0.1,0.1-0.2,0.2-0.2
	l5.4-1.4c0.1,0,0.2,0,0.2,0.1c0.1,0.1,0.1,0.2,0.2,0.3c0,0.1,0,0.2,0,0.2c0,0.1-0.1,0.1-0.2,0.2c-0.8,0.3-1.2,0.6-1.1,0.9l2.4,9.2
	c0.1,0.2,0.2,0.4,0.3,0.5c0.2,0.1,0.3,0.1,0.5,0.1c0.2,0,0.4,0,0.7-0.1C63.1,22.1,63.2,22.1,63.3,22.1z"/>
<path class="st0" d="M65.5,22.2c0,0,0.1-0.1,0.2-0.1c0.4,0,0.7,0,0.9-0.1c0.3-0.1,0.4-0.2,0.4-0.4l0.7-9.5c0-0.2,0-0.4-0.2-0.5
	c-0.1-0.1-0.3-0.2-0.4-0.3c-0.2,0-0.4-0.1-0.7-0.2c-0.1,0-0.2-0.1-0.2-0.1c0,0-0.1-0.1,0-0.3c0-0.1,0-0.2,0.1-0.3
	c0.1-0.1,0.1-0.1,0.2-0.1l10.1,0.7l0.1,2.9c0,0.1,0,0.2-0.1,0.2c-0.1,0-0.2,0.1-0.3,0.1c-0.3,0-0.5-0.1-0.6-0.3
	c-0.1-0.2-0.2-0.4-0.3-0.8c-0.1-0.4-0.3-0.6-0.3-0.8c-0.1-0.2-0.2-0.3-0.3-0.4c-0.1-0.1-0.3-0.2-0.6-0.2l-3.4-0.2l-0.3,4.8l2.3,0.2
	c0.1,0,0.3-0.1,0.4-0.3c0.1-0.2,0.3-0.4,0.4-0.6s0.2-0.4,0.2-0.5c0-0.2,0.2-0.3,0.4-0.3c0.1,0,0.2,0,0.3,0.1
	c0.1,0.1,0.2,0.1,0.2,0.2l-0.3,3.9c0,0.1-0.1,0.2-0.2,0.2c-0.1,0-0.2,0.1-0.3,0.1c-0.1,0-0.2,0-0.3-0.1c-0.1,0-0.1-0.1-0.1-0.2
	c0-0.1,0-0.4-0.1-0.6c-0.1-0.3-0.2-0.5-0.3-0.7c-0.1-0.2-0.3-0.3-0.4-0.3l-2.3-0.2L70,21.5c0,0.5,0.2,0.8,0.7,0.9l2.5,0.2
	c0.3,0,0.7,0,0.9-0.2c0.3-0.1,0.5-0.4,0.8-0.7s0.5-0.8,0.9-1.4c0-0.1,0.1-0.2,0.3-0.2c0.1,0,0.2-0.1,0.4,0c0.1,0,0.2,0,0.3,0.1
	c0.1,0.1,0.2,0.1,0.2,0.2l-0.6,3.2l-10.7-0.8c-0.1,0-0.2-0.1-0.2-0.2c0-0.1-0.1-0.2-0.1-0.3C65.5,22.4,65.5,22.3,65.5,22.2z"/>
<path class="st0" d="M78.7,24.1c0-0.1,0-0.2,0-0.3c0-0.1,0.1-0.2,0.1-0.2s0.1,0,0.2,0c0.3,0.1,0.6,0.1,0.9,0.1
	c0.3,0,0.5-0.1,0.5-0.3l3.2-8.8c0.1-0.2,0.1-0.4,0-0.6c-0.1-0.2-0.2-0.3-0.3-0.4c-0.2-0.1-0.4-0.2-0.6-0.3c-0.1-0.1-0.2-0.1-0.2-0.2
	c0,0,0-0.1,0-0.3c0-0.1,0.1-0.2,0.2-0.2c0.1-0.1,0.2-0.1,0.3-0.1l5.6,2.1c0.1,0,0.1,0.1,0.1,0.2c0,0.1,0,0.2,0,0.3
	c-0.1,0.2-0.2,0.3-0.4,0.2c-0.5-0.2-0.9-0.3-1.2-0.3c-0.3,0-0.5,0.2-0.6,0.5l-3.2,8.7c-0.1,0.2-0.1,0.4,0,0.6s0.3,0.2,0.5,0.3
	l2.3,0.8c0.2,0.1,0.5,0,0.9-0.2c0.4-0.2,0.7-0.5,1.1-0.8c0.4-0.3,0.7-0.7,1-1.1c0.1-0.1,0.2-0.1,0.3-0.1c0.2,0,0.3,0,0.4,0.1
	c0.1,0,0.2,0.1,0.3,0.2c0.1,0.1,0.1,0.2,0.1,0.3l-1.8,3.4l-9.6-3.5C78.7,24.3,78.7,24.2,78.7,24.1z"/>
<path class="st0" d="M90.4,28.7c0-0.1,0-0.2,0.1-0.3c0.1-0.1,0.1-0.1,0.2-0.1c0.1,0,0.1,0,0.2,0.1c0.3,0.2,0.6,0.3,0.8,0.3
	s0.5,0,0.6-0.1l5.5-7.7c0.1-0.2,0.2-0.4,0.2-0.5c0-0.2-0.1-0.3-0.2-0.5s-0.3-0.3-0.5-0.5c-0.1-0.1-0.2-0.2-0.2-0.2
	c0-0.1,0-0.1,0.1-0.2c0.1-0.1,0.1-0.1,0.2-0.2c0.1-0.1,0.2-0.1,0.3,0l4.9,3.5c0.1,0.1,0.1,0.1,0.1,0.3c0,0.1,0,0.2-0.1,0.3
	c-0.1,0.2-0.3,0.2-0.4,0.1c-0.4-0.3-0.8-0.5-1.1-0.6c-0.3-0.1-0.5,0-0.7,0.3l-5.4,7.6c-0.2,0.2-0.2,0.4-0.1,0.5
	c0.1,0.2,0.2,0.3,0.4,0.4l1.9,1.4c0.2,0.1,0.5,0.2,0.9,0.1c0.4-0.1,0.8-0.3,1.3-0.5c0.5-0.2,0.9-0.5,1.3-0.8c0.1-0.1,0.2-0.1,0.3,0
	s0.3,0.1,0.4,0.2c0.1,0.1,0.2,0.2,0.2,0.3c0.1,0.1,0.1,0.2,0,0.3l-2.7,2.8l-8.3-6C90.4,28.9,90.3,28.8,90.4,28.7z"/>
<path class="st0" d="M102.5,38.1c-0.1-1.1,0.1-2.2,0.5-3.2c0.5-1,1.2-1.9,2.2-2.6c1-0.7,2-1.2,3.1-1.3c1.1-0.2,2.2,0,3.2,0.4
	c1,0.5,2,1.2,2.8,2.3c0.8,1.1,1.3,2.1,1.4,3.3c0.1,1.1,0,2.2-0.5,3.2c-0.5,1-1.2,1.9-2.2,2.6c-1,0.7-2,1.2-3.1,1.3
	c-1.1,0.2-2.2,0-3.3-0.4c-1.1-0.4-2-1.2-2.8-2.2C103.1,40.4,102.6,39.3,102.5,38.1z M107.2,42c1.1-0.2,2.4-0.8,3.8-1.9
	c1.5-1.1,2.4-2.1,2.9-3.1s0.4-1.9-0.3-2.8c-0.6-0.9-1.5-1.2-2.6-1c-1.1,0.2-2.4,0.8-3.8,1.9c-1.5,1.1-2.4,2.1-2.9,3.2
	c-0.5,1-0.4,2,0.3,2.8C105.2,41.8,106.1,42.1,107.2,42z"/>
<path class="st0" d="M14.4,91c0.1-0.1,0.1-0.2,0.2-0.2c0.1,0,0.2-0.1,0.2-0.1c0.1,0,0.1,0.1,0.2,0.2c0.2,0.3,0.4,0.6,0.6,0.7
	c0.2,0.1,0.3,0.2,0.5,0.1l8.4-4.5c0.2-0.1,0.3-0.2,0.4-0.4s0.1-0.3,0-0.5c0-0.2-0.1-0.4-0.2-0.6c-0.1-0.1-0.1-0.2-0.1-0.3
	c0-0.1,0.1-0.1,0.2-0.2c0.1,0,0.2-0.1,0.3-0.1c0.1,0,0.2,0,0.2,0.1l4.6,8.8l-2.5,1.7c-0.1,0-0.2,0-0.2,0s-0.1-0.1-0.2-0.2
	c-0.2-0.3-0.2-0.5-0.1-0.7c0.2-0.2,0.3-0.5,0.5-0.7c0.2-0.3,0.4-0.6,0.5-0.8c0.1-0.2,0.2-0.4,0.2-0.6c0-0.2,0-0.4-0.1-0.6l-1.5-2.8
	l-4.5,2.4l1.1,2.1c0.1,0.1,0.2,0.2,0.5,0.2s0.5,0,0.7,0c0.3,0,0.4-0.1,0.6-0.1c0.2-0.1,0.3,0,0.4,0.2c0,0.1,0.1,0.2,0,0.2
	c0,0.1-0.1,0.2-0.1,0.2l-3.4,1.8c-0.1,0-0.2,0-0.2,0s-0.1-0.1-0.2-0.2c-0.1-0.1-0.1-0.2-0.1-0.3c0-0.1,0-0.2,0.1-0.2
	c0.1-0.1,0.3-0.2,0.5-0.4c0.2-0.2,0.3-0.4,0.4-0.6c0.1-0.2,0.1-0.4,0.1-0.5l-1.1-2l-3.5,1.9c-0.2,0.1-0.3,0.3-0.3,0.6
	c0,0.3,0.1,0.6,0.2,1c0.1,0.3,0.2,0.6,0.4,0.9c0,0.1,0.1,0.2,0,0.2c0,0.1-0.1,0.1-0.2,0.2c-0.1,0-0.2,0.1-0.3,0.1s-0.2,0-0.2-0.1
	l-3-5.7C14.4,91.2,14.4,91.1,14.4,91z"/>
<path class="st0" d="M31.1,110.8c-0.8,0.2-1.6,0.2-2.3,0c-0.8-0.2-1.5-0.7-2.2-1.4c-1.3-1.3-2-2.6-2.1-3.9c-0.2-1.3,0.4-2.6,1.7-3.8
	l4.3-4.2c0.2-0.2,0.3-0.3,0.3-0.5c0-0.2,0-0.3-0.1-0.5c-0.1-0.1-0.2-0.3-0.4-0.5c-0.1-0.1-0.1-0.2-0.1-0.2c0-0.1,0-0.1,0.1-0.2
	c0.1-0.1,0.2-0.1,0.3-0.1s0.2,0,0.3,0l3.9,4c0.1,0.1,0.1,0.2,0,0.3s-0.1,0.2-0.1,0.3c-0.1,0.1-0.1,0.1-0.2,0.1c-0.1,0-0.1,0-0.2-0.1
	c-0.3-0.3-0.6-0.4-0.8-0.6c-0.2-0.1-0.4-0.1-0.6,0l-4.7,4.6c-0.7,0.7-1.2,1.3-1.5,1.9c-0.3,0.6-0.4,1.1-0.3,1.6
	c0.1,0.5,0.4,1,0.9,1.4c0.6,0.6,1.2,0.9,1.8,1.1c0.6,0.1,1.3,0.1,1.9-0.1c0.6-0.2,1.2-0.6,1.7-1.1l4.6-4.5c0.2-0.2,0.2-0.4,0.1-0.7
	c-0.1-0.3-0.3-0.6-0.6-0.9c-0.1-0.1-0.1-0.2-0.1-0.2c0-0.1,0-0.1,0.1-0.2c0.1-0.1,0.2-0.1,0.3-0.1c0.1,0,0.2,0,0.3,0l2.9,2.9
	c0.1,0.1,0.1,0.2,0,0.3c0,0.1-0.1,0.2-0.1,0.3c-0.1,0.1-0.1,0.1-0.2,0.1c-0.1,0-0.1,0-0.2-0.1c-0.3-0.3-0.6-0.5-0.9-0.6
	c-0.3-0.1-0.5,0-0.7,0.2l-4.5,4.4C32.6,110.1,31.9,110.6,31.1,110.8z"/>
<path class="st0" d="M36.9,117.3c0-0.1,0-0.2,0.1-0.3c0-0.1,0.1-0.1,0.2-0.2c0.1,0,0.1,0,0.2,0c0.5,0.2,0.9,0.4,1.2,0.4
	c0.3,0.1,0.6,0,0.7-0.3l4.8-8.8l-1.9-1.1c-0.3-0.1-0.6-0.1-0.9,0.1c-0.3,0.2-0.7,0.5-0.9,0.8c-0.3,0.3-0.5,0.6-0.7,0.9
	c-0.1,0.1-0.1,0.1-0.3,0.1s-0.2,0-0.3-0.1c-0.1,0-0.1-0.1-0.2-0.2s-0.1-0.2,0-0.3c0.4-0.8,0.9-1.5,1.3-2.1c0.4-0.7,0.7-1,0.7-1
	l9.9,5.4c0.1,0-0.1,0.4-0.4,1.1c-0.3,0.7-0.7,1.5-1.1,2.2c0,0.1-0.1,0.1-0.2,0.1s-0.2,0-0.3-0.1c-0.1-0.1-0.2-0.1-0.3-0.2
	c-0.1-0.1-0.1-0.2,0-0.3c0.2-0.6,0.4-1.2,0.6-1.8s0-1.1-0.4-1.3l-1.8-1l-4.8,8.7c-0.1,0.2-0.1,0.4,0,0.6c0.1,0.2,0.2,0.4,0.4,0.5
	c0.2,0.1,0.4,0.3,0.7,0.5c0.1,0.1,0.2,0.1,0.2,0.2c0,0.1,0,0.1-0.1,0.2c0,0.1-0.1,0.1-0.2,0.2c-0.1,0.1-0.2,0.1-0.3,0l-5.7-3.1
	C37,117.5,36.9,117.4,36.9,117.3z"/>
<path class="st0" d="M60.5,124c-0.5,0.6-1.2,1-2,1.3s-1.6,0.2-2.6,0c-1.8-0.4-3.1-1.1-3.9-2.1c-0.8-1-1.1-2.4-0.7-4.1l1.3-5.9
	c0.1-0.2,0-0.4-0.1-0.6c-0.1-0.1-0.2-0.2-0.4-0.3c-0.2-0.1-0.4-0.1-0.6-0.2c-0.1,0-0.2-0.1-0.2-0.1c0,0,0-0.1,0-0.3
	c0-0.1,0.1-0.2,0.1-0.3c0.1-0.1,0.2-0.1,0.2-0.1l5.4,1.2c0.1,0,0.1,0.1,0.2,0.2c0,0.1,0,0.2,0,0.3c0,0.1-0.1,0.2-0.1,0.2
	c-0.1,0-0.1,0.1-0.2,0c-0.4-0.1-0.7-0.1-1,0s-0.4,0.1-0.5,0.3l-1.4,6.4c-0.2,1-0.3,1.8-0.2,2.4c0.1,0.6,0.3,1.1,0.6,1.5
	c0.4,0.3,0.9,0.6,1.5,0.7c0.8,0.2,1.5,0.1,2.1-0.1c0.6-0.2,1.1-0.6,1.5-1.2c0.4-0.5,0.6-1.1,0.8-1.8l1.4-6.3
	c0.1-0.2-0.1-0.5-0.3-0.6c-0.3-0.2-0.6-0.3-1-0.5c-0.1,0-0.2-0.1-0.2-0.1c0,0,0-0.1,0-0.3c0-0.1,0.1-0.2,0.1-0.3
	c0.1-0.1,0.2-0.1,0.2-0.1l4,0.9c0.1,0,0.1,0.1,0.2,0.2c0,0.1,0,0.2,0,0.3c0,0.1-0.1,0.2-0.1,0.2c-0.1,0-0.1,0.1-0.2,0
	c-0.5-0.1-0.8-0.1-1.1,0c-0.3,0.1-0.4,0.3-0.5,0.5l-1.4,6.1C61.3,122.6,61,123.4,60.5,124z"/>
<path class="st0" d="M67.4,126.5c-0.1-0.1-0.1-0.2-0.1-0.3c0-0.1,0-0.2,0-0.2c0-0.1,0.1-0.1,0.2-0.1c0.8-0.1,1.2-0.4,1.1-0.7
	l-0.9-9.5c0-0.2-0.1-0.4-0.2-0.5c-0.1-0.1-0.3-0.2-0.4-0.2c-0.2,0-0.4,0-0.7,0c-0.1,0-0.2,0-0.3,0c0,0-0.1-0.1-0.1-0.2
	c0-0.1,0-0.2,0.1-0.3c0-0.1,0.1-0.2,0.2-0.2l0.9-0.1c0.2,0,0.4,0,0.7-0.1c0.3,0,0.9-0.1,1.7-0.2c1-0.1,1.8-0.2,2.4-0.3
	c1.6-0.2,2.9,0,3.8,0.5c0.9,0.5,1.4,1.3,1.5,2.4c0.1,0.7,0,1.3-0.3,1.8s-0.6,0.9-1,1.2c-0.4,0.3-1,0.5-1.6,0.8c0.5,0,1,0.1,1.3,0.3
	s0.6,0.5,0.9,0.7c0.2,0.3,0.5,0.7,0.7,1.2c0.2,0.3,0.3,0.6,0.4,0.8c0.1,0.2,0.2,0.4,0.4,0.6c0.2,0.3,0.4,0.6,0.6,0.7
	c0.2,0.1,0.4,0.2,0.7,0.2c0.1,0,0.2,0,0.3,0.1c0,0,0.1,0.1,0.1,0.3c0,0.1,0,0.2-0.1,0.3c0,0.1-0.1,0.2-0.2,0.2l-3,0.3
	c-0.3,0-0.6-0.1-0.8-0.3c-0.2-0.2-0.4-0.5-0.6-0.8c-0.2-0.3-0.4-0.8-0.6-1.3c-0.3-0.6-0.5-1.1-0.7-1.5c-0.2-0.4-0.5-0.7-0.8-0.9
	c-0.3-0.2-0.7-0.3-1.1-0.3l-1,0.1l0.4,3.8c0,0.2,0.1,0.4,0.3,0.5s0.3,0.2,0.5,0.2c0.2,0,0.5,0,0.8,0c0.1,0,0.2,0,0.3,0
	c0,0,0.1,0.1,0.1,0.2c0,0.1,0,0.2-0.1,0.3c0,0.1-0.1,0.2-0.2,0.2l-5.6,0.5C67.5,126.6,67.5,126.6,67.4,126.5z M74.1,119.1
	c0.4-0.5,0.5-1.2,0.4-2.1c-0.1-0.9-0.4-1.6-0.8-2c-0.4-0.4-1.1-0.6-1.9-0.5l-1.2,0.1l0.5,5.4l1.3-0.1
	C73.1,119.8,73.7,119.5,74.1,119.1z"/>
<path class="st0" d="M84.5,123.4c0-0.1,0.1-0.1,0.2-0.2c0.3-0.2,0.6-0.3,0.8-0.5c0.2-0.2,0.3-0.3,0.2-0.5l-3.6-8.8
	c-0.1-0.2-0.2-0.3-0.4-0.4c-0.2-0.1-0.3-0.1-0.5,0c-0.2,0-0.4,0.1-0.7,0.2c-0.1,0-0.2,0-0.3,0c-0.1,0-0.1-0.1-0.2-0.2
	c0-0.1,0-0.2,0-0.3c0-0.1,0.1-0.2,0.1-0.2l9.4-3.8l1.4,2.5c0,0.1,0,0.2,0,0.2c-0.1,0.1-0.1,0.1-0.2,0.2c-0.3,0.1-0.5,0.1-0.7,0
	c-0.1-0.1-0.3-0.3-0.6-0.5c-0.3-0.3-0.5-0.4-0.7-0.5c-0.2-0.1-0.3-0.2-0.5-0.2s-0.4,0-0.6,0.1l-3.2,1.3l1.8,4.4l2.2-0.9
	c0.1-0.1,0.2-0.2,0.3-0.4c0-0.2,0.1-0.5,0.1-0.7s0-0.4-0.1-0.6c0-0.2,0-0.3,0.3-0.4c0.1,0,0.2,0,0.3,0c0.1,0,0.2,0.1,0.2,0.1
	l1.5,3.6c0,0.1,0,0.2-0.1,0.3c-0.1,0.1-0.2,0.2-0.3,0.2c-0.1,0-0.2,0.1-0.3,0c-0.1,0-0.2-0.1-0.2-0.2c-0.1-0.1-0.2-0.3-0.4-0.5
	c-0.2-0.2-0.4-0.4-0.6-0.5c-0.2-0.1-0.4-0.2-0.5-0.1l-2.1,0.9l1.6,3.9c0.2,0.5,0.5,0.6,1.1,0.5l2.3-1c0.3-0.1,0.6-0.3,0.8-0.6
	c0.2-0.2,0.3-0.6,0.4-1c0.1-0.4,0.1-0.9,0.2-1.6c0-0.1,0.1-0.2,0.1-0.3c0.1-0.1,0.2-0.2,0.3-0.2c0.1,0,0.2-0.1,0.4-0.1
	s0.2,0.1,0.3,0.1l0.9,3.2l-9.9,4c-0.1,0-0.2,0-0.3-0.1c-0.1-0.1-0.2-0.2-0.2-0.2C84.5,123.6,84.5,123.5,84.5,123.4z"/>
<rect x="31.3" y="31.2" transform="matrix(0.8027 -0.5964 0.5964 0.8027 -15.5833 26.5155)" class="st1" width="2" height="11.2"/>
<path class="st0" d="M102.8,57.1l-13.2-4.4l0.2-13.9l-13.3,4.2l-8-11.4l-8.3,11.2l-13.2-4.5l-0.1,13.9l-13.3,4.1l8.1,11.4l-8.3,11.2
	l13.2,4.4l-0.2,13.9l13.3-4.2l8,11.4l8.3-11.2l13.2,4.5l0.1-13.9l13.3-4.1l-8.1-11.4L102.8,57.1z M90.5,76.7
	c-4.3,12.6-18,19.4-30.6,15.2s-19.4-18-15.2-30.6c4.3-12.6,18-19.4,30.6-15.2C88,50.3,94.8,64,90.5,76.7z"/>
<path class="st0" d="M67.5,82.2c-1.4,0-2.7-0.2-4-0.7c-4.7-1.6-8.1-5.8-8.6-10.7l3-0.3c0.4,3.8,3,7,6.5,8.2
	c3.6,1.2,7.6,0.2,10.2-2.5l2.2,2.1C74.3,80.8,70.9,82.2,67.5,82.2z"/>
<ellipse transform="matrix(0.3198 -0.9475 0.9475 0.3198 -13.4978 101.5203)" class="st0" cx="64" cy="60.2" rx="5.6" ry="1.9"/>
<ellipse transform="matrix(0.3198 -0.9475 0.9475 0.3198 -9.1678 115.6599)" class="st0" cx="76" cy="64.2" rx="5.6" ry="1.9"/>
<rect x="110.6" y="56.1" transform="matrix(0.9543 -0.2987 0.2987 0.9543 -11.7908 36.9804)" class="st1" width="8.9" height="2"/>
<rect x="115" y="67.1" transform="matrix(0.1424 -0.9898 0.9898 0.1424 26.0281 178.5028)" class="st1" width="2" height="14.4"/>
<rect x="98.2" y="92" transform="matrix(0.8143 -0.5804 0.5804 0.8143 -37.5 75.4746)" class="st1" width="2" height="8.7"/>
<rect x="21" y="44.9" transform="matrix(0.3198 -0.9475 0.9475 0.3198 -31.0926 53.928)" class="st1" width="2" height="7.5"/>
<rect x="17.7" y="68.6" transform="matrix(0.958 -0.2866 0.2866 0.958 -18.9986 9.3535)" class="st1" width="9.6" height="2"/>
<rect x="112.6" y="85.2" transform="matrix(0.4315 -0.9021 0.9021 0.4315 -15.4852 152.9954)" class="st1" width="2" height="7.2"/>
</svg>
