<?xml version="1.0" encoding="utf-8"?>
<!-- Generator: Adobe Illustrator 25.3.1, SVG Export Plug-In . SVG Version: 6.00 Build 0)  -->
<svg version="1.1" xmlns="http://www.w3.org/2000/svg" xmlns:xlink="http://www.w3.org/1999/xlink" x="0px" y="0px"
	 width="246px" viewBox="0 0 246 125" style="enable-background:new 0 0 246 125;" xml:space="preserve">
<style type="text/css">
	.st0{fill:#FFFFFF;}
	.st1{fill:#78DEA2;}
</style>
<g>
	<polygon class="st0" points="189.1,47.2 49.9,47.2 0.5,0.3 151,0.3 	"/>
	<path d="M150.3,1.8L186,45.7H50.5L4.3,1.8H150.3 M151,0.3H0.5l49.4,46.9h139.2L151,0.3L151,0.3z"/>
</g>
<g>
	<polygon points="52.3,41.2 15.5,6.3 148.2,6.3 176.5,41.2 	"/>
</g>
<g>
	<rect x="49.9" y="45.7" class="st0" width="139.2" height="63.9"/>
	<path d="M187.1,47.7v59.9H51.9V47.7H187.1 M189.1,45.7H49.9v63.9h139.2V45.7L189.1,45.7z"/>
</g>
<path d="M62.9,57.8v30.9h112.2V57.8H62.9z M173.1,72.2h-13V59.8h13V72.2z M126,72.2h-14V59.8h14V72.2z M128,59.8h14v12.4h-14V59.8z
	 M110,72.2H96V59.8h14V72.2z M94,72.2h-14V59.8h14V72.2z M94,74.2v12.4h-14V74.2H94z M96,74.2h14v12.4H96V74.2z M112,74.2h14v12.4
	h-14V74.2z M128,74.2h14v12.4h-14V74.2z M144,74.2h14v12.4h-14V74.2z M144,72.2V59.8h14v12.4H144z M77.9,59.8v12.4h-13V59.8H77.9z
	 M64.9,74.2h13v12.4h-13V74.2z M160,86.7V74.2h13v12.4H160z"/>
<polygon points="143.8,109.5 141.8,109.5 141.8,102.1 97.2,102.1 97.2,109.5 95.2,109.5 95.2,100.1 143.8,100.1 "/>
<path class="st1" d="M131.2,24.4c-1,1.7-1.8,2.8-3.1,2.8c-1.3,0-2-1-3.1-2.8c-1-1.7-2.3-3.7-4.8-3.7c-2.5,0-3.8,2.1-4.8,3.7
	c-1,1.7-1.8,2.8-3.1,2.8c-1.3,0-2-1-3.1-2.8c-1-1.7-2.3-3.7-4.8-3.7c-2.5,0-3.8,2.1-4.8,3.7c-1,1.7-1.8,2.8-3.1,2.8
	c-1.3,0-2-1-3.1-2.8c-1-1.7-2.3-3.7-4.8-3.7c-2.5,0-3.8,2.1-4.8,3.7c-1,1.7-1.8,2.8-3.1,2.8s-2-1-3.1-2.8c-1-1.7-2.3-3.7-4.8-3.7
	c-2.5,0-3.8,2.1-4.8,3.7c-1,1.7-1.8,2.8-3.1,2.8c-1.3,0-2-1-3.1-2.8c-1-1.7-2.3-3.7-4.8-3.7v2c1.3,0,2,1,3.1,2.8
	c1,1.7,2.3,3.7,4.8,3.7c2.5,0,3.8-2.1,4.8-3.7c1-1.7,1.8-2.8,3.1-2.8c1.3,0,2,1,3.1,2.8c1,1.7,2.3,3.7,4.8,3.7s3.8-2.1,4.8-3.7
	c1-1.7,1.8-2.8,3.1-2.8c1.3,0,2,1,3.1,2.8c1,1.7,2.3,3.7,4.8,3.7c2.5,0,3.8-2.1,4.8-3.7c1-1.7,1.8-2.8,3.1-2.8c1.3,0,2,1,3.1,2.8
	c1,1.7,2.3,3.7,4.8,3.7c2.5,0,3.8-2.1,4.8-3.7c1-1.7,1.8-2.8,3.1-2.8c1.3,0,2,1,3.1,2.8c1,1.7,2.3,3.7,4.8,3.7
	c2.5,0,3.8-2.1,4.8-3.7c1-1.7,1.8-2.8,3.1-2.8v-2C133.5,20.6,132.2,22.7,131.2,24.4z"/>
<path class="st0" d="M224.7,124.1l-3.2-0.8c-7.2-1.8-11.6-9.1-9.8-16.3l3.9-15.9c1.8-7.2,9.1-11.6,16.3-9.8l3.2,0.8
	c7.2,1.8,11.6,9.1,9.8,16.3l-3.9,15.9C239.2,121.5,231.9,125.8,224.7,124.1z"/>
<path d="M235.2,81.9l-3.2-0.8c-1.1-0.3-2.2-0.4-3.3-0.4v0l0,0c0,0,0,0,0,0c-6.1,0-11.6,4.1-13.2,10.3l-4,16
	c-1.8,7.3,2.6,14.6,9.9,16.4l3.2,0.8c1.1,0.3,2.2,0.4,3.3,0.4c6.1,0,11.6-4.1,13.2-10.3l4-16C246.9,91.1,242.5,83.7,235.2,81.9z
	 M228.7,81.7L228.7,81.7L228.7,81.7L228.7,81.7c1,0,2,0.1,3,0.4l0.4,0.1l-3.4,13.9L216.1,93l0.4-1.7
	C217.9,85.6,222.9,81.7,228.7,81.7z M240.2,114.1c-1.4,5.6-6.4,9.6-12.2,9.6c-1,0-2-0.1-3-0.4l-3.2-0.8c-3.3-0.8-6-2.8-7.7-5.7
	c-1.7-2.9-2.2-6.3-1.4-9.5l3.1-12.4l27.6,6.8L240.2,114.1z M244.1,98.1l-0.4,1.7l-13.1-3.2l3.4-13.9l0.8,0.2c3.3,0.8,6,2.8,7.7,5.7
	C244.4,91.5,244.9,94.8,244.1,98.1z"/>
</svg>
